A D/client////
A D/clientscript////
A D/common////
A D/contrib////
A D/dhcpctl////
A D/doc////
A D/dst////
A D/includes////
A D/minires////
A D/omapip////
A D/omshell////
A D/relay////
A D/server////
A D/share////
A D/statmsg////
A D/sysconfd////
A D/tests////
R D/tests////
R D/sysconfd////
R D/statmsg////
R D/includes////
R D/doc////
R D/contrib////
