A D/01.begin////
A D/04.csh////
A D/07.Mail////
A D/09.newsread////
A D/10.etiq////
A D/11.notes////
A D/14.edit////
A D/15.vi////
A D/16.ex////
A D/17.msmacros////
A D/18.msdiffs////
A D/19.memacros////
A D/20.meref////
A D/21.msdiffs////
A D/22.memacros////
A D/23.meref////
A D/33.rogue////
A D/34.trek////
R D/34.trek////
R D/33.rogue////
R D/23.meref////
R D/22.memacros////
R D/21.msdiffs////
R D/16.ex////
R D/15.vi////
R D/14.edit////
R D/11.notes////
R D/10.etiq////
R D/09.newsread////
R D/07.Mail////
R D/04.csh////
