A D/adm5120////
A D/alchemy////
A D/atheros////
A D/compile////
A D/conf////
A D/dev////
A D/evbmips////
A D/gdium////
A D/include////
A D/isa////
A D/loongson////
A D/malta////
A D/pb1000////
A D/pci////
A D/rasoc////
A D/rmixl////
R D/pci////
R D/pb1000////
R D/dev////
