A D/build.unix////
A D/catalog////
A D/cl////
A D/clib////
A D/common////
A D/dist////
A D/docs////
A D/ex////
A D/gtk////
A D/include////
A D/ip////
A D/ipc////
A D/motif////
A D/motif_l////
A D/perl_api////
A D/perl_scripts////
A D/regex////
A D/tcl_api////
A D/tcl_scripts////
A D/vi////
