A D/acecad////
A D/calcomp////
A D/citron////
A D/digitaledge////
A D/dmc////
A D/dynapro////
A D/elographics////
A D/fpit////
A D/hyperpen////
A D/js_x////
A D/kbd////
A D/magellan////
A D/microtouch////
A D/mouse////
A D/mutouch////
A D/palmax////
A D/penmount////
A D/spaceorb////
A D/summa////
A D/tek4957////
A D/usbtablet////
A D/void////
A D/wacom////
