A D/appres////
A D/bdftopcf////
A D/bdftruncate////
A D/beforelight////
A D/bitmap////
A D/ccmakedep////
A D/cleanlinks////
A D/cxpm////
A D/dpsexec////
A D/dpsinfo////
A D/editres////
A D/fc-cache////
A D/fc-list////
A D/fonttosfnt////
A D/fslsfonts////
A D/fstobdf////
A D/gccmakedep////
A D/glxgears////
A D/glxinfo////
A D/iceauth////
A D/ico////
A D/imake////
A D/lbxproxy////
A D/listres////
A D/lndir////
A D/luit////
A D/makedepend////
A D/makeg////
A D/makepsres////
A D/makestrs////
A D/mergelib////
A D/mkcfm////
A D/mkdirhier////
A D/mkfontdir////
A D/mkfontscale////
A D/mkhtmlindex////
A D/oclock////
A D/proxymngr////
A D/pswrap////
A D/revpath////
A D/rgb////
A D/rman////
A D/rstart////
A D/scripts////
A D/setxkbmap////
A D/showfont////
A D/showrgb////
A D/smproxy////
A D/ssh-askpass////
A D/sxpm////
A D/texteroids////
A D/twm////
A D/ucs2any////
A D/viewres////
A D/x11perf////
A D/xauth////
A D/xbiff////
A D/xcalc////
A D/xclipboard////
A D/xclock////
A D/xcmsdb////
A D/xconsole////
A D/xcutsel////
A D/xditview////
A D/xdm////
A D/xdpyinfo////
A D/xdriinfo////
A D/xedit////
A D/xev////
A D/xeyes////
A D/xf86dga////
A D/xfd////
A D/xfindproxy////
A D/xfontsel////
A D/xfs////
A D/xfsinfo////
A D/xfwp////
A D/xgamma////
A D/xgc////
A D/xhost////
A D/xinit////
A D/xkbcomp////
A D/xkbevd////
A D/xkbprint////
A D/xkbutils////
A D/xkill////
A D/xload////
A D/xlogo////
A D/xlsatoms////
A D/xlsclients////
A D/xlsfonts////
A D/xmag////
A D/xman////
A D/xmessage////
A D/xmh////
A D/xmkmf////
A D/xmodmap////
A D/xmore////
A D/xphelloworld////
A D/xplsprinters////
A D/xprehashprinterlist////
A D/xprop////
A D/xrandr////
A D/xrdb////
A D/xrefresh////
A D/xset////
A D/xsetmode////
A D/xsetpointer////
A D/xsetroot////
A D/xsm////
A D/xstdcmap////
A D/xsystrace////
A D/xterm////
A D/xtrap////
A D/xvidtune////
A D/xvinfo////
A D/xwd////
A D/xwininfo////
A D/xwud////
R D/xsystrace////
R D/xprehashprinterlist////
R D/xplsprinters////
R D/xphelloworld////
R D/xmore////
R D/xdriinfo////
