A D/adventure////
A D/arithmetic////
A D/atc////
A D/backgammon////
A D/banner////
A D/battlestar////
A D/bcd////
A D/boggle////
A D/caesar////
A D/canfield////
A D/ching////
A D/countmail////
A D/cribbage////
A D/dab////
A D/dm////
A D/factor////
A D/fish////
A D/fortune////
A D/gomoku////
A D/hack////
A D/hangman////
A D/hunt////
A D/larn////
A D/mille////
A D/moduli////
A D/monop////
A D/morse////
A D/number////
A D/phantasia////
A D/pig////
A D/pom////
A D/ppt////
A D/primes////
A D/quiz////
A D/rain////
A D/random////
A D/robots////
A D/rogue////
A D/sail////
A D/snake////
A D/tetris////
A D/trek////
A D/wargames////
A D/worm////
A D/worms////
A D/wtf////
A D/wump////
R D/moduli////
