A D/libaudio////
A D/libbpf////
A D/libcgd////
A D/libdisk////
A D/libdm////
A D/libdrvctl////
A D/libfss////
A D/libmd////
A D/libnetsmb////
A D/libnpf////
A D/libpad////
A D/libpud////
A D/libputter////
A D/libraidframe////
A D/librnd////
A D/libscsipi////
A D/libscsitest////
A D/libsysmon////
A D/libubt////
A D/libucom////
A D/libugenhc////
A D/libulpt////
A D/libumass////
A D/libusb////
A D/libwscons////
A D/opt////
R D/opt////
