A D/amd64////
A D/crypto////
A D/dirshack////
A D/external////
A D/gnu////
A D/lib////
A D/libexec////
A D/mips64////
A D/objdirhack////
A D/sparc64////
R D/objdirhack////
R D/libexec////
R D/lib////
R D/gnu////
R D/external////
R D/crypto////
